vhdl work "D:\TrabajoSed\siete_segmentos_mux.vhd"
vhdl work "D:\TrabajoSed\siete_segmentos.vhd"
vhdl work "D:\TrabajoSed\clk200Hz.vhd"
vhdl work "D:\TrabajoSed\siete_segmentos_completo.vhd"
vhdl work "D:\TrabajoSed\contador_reloj.vhd"
vhdl work "D:\TrabajoSed\clk1Hz.vhd"
vhdl work "D:\TrabajoSed\reloj.vhd"
